1	500 24	22	436	131	270	230	288	329	363	452	223	60	388	29	178	470	433	22	368	375	320	476	432	210	295	270	266	378	271	484	318	36	335	337	481	27	182	442
2	500	1
3	14	203	82	327	408	494	333	50	202	265	250	400	433	115	154	409	418	247	184	109	277	144	214	486	257	176	117	149	470	57	443	493	268	338	431	46	3	352
4	38	492	145	437	430	44	351	357	33	36	343	304	11	203	433	183	106	498	52	60	321	329	254	478	197	480	281	116	497	213	145	66	192	338	307	395	333	383
5	309	47	80	412	158	374	62	468	421	124	457	141	88	39	251	191	6	473	257	335	288	225	165	462	294	394	393	110	184	230	150	350	489	186	257	95	164	237
6	13	342	405	468	440	97	210	499	325	16	306	80	215	239	153	219	138	14	80	248	365	224	413	484	395	249	112	302	93	439	448	296	306	65	273	127	82	142
7	213	327	156	1	36	457	395	183	310	473	440	137	280	367	414	361	411	156	140	144	86	305	331	132	236	49	249	152	491	175	420	288	131	334	457	87	72	338
8	412	289	237	489	171	481	254	480	453	454	118	136	418	415	96	302	408	359	419	61	153	63	325	19	77	456	301	14	434	484	5	377	480	340	17	206	363	295
9	448	416	27	117	411	42	480	302	201	183	461	477	34	183	209	393	317	150	418	476	228	88	1	380	123	50	341	411	423	52	87	365	217	302	369	135	341	497
10	152	28	260	213	463	120	318	17	286	5	177	63	404	86	110	442	165	476	189	485	339	208	472	49	124	48	52	63	173	42	250	126	456	83	94	104	171	359
11	329	403	366	271	279	303	153	41	328	252	49	108	270	43	189	12	437	75	218	258	266	393	286	50	312	227	461	176	358	119	245	435	393	308	109	39	65	431
12	140	498	101	9	273	261	46	15	93	438	291	304	161	383	29	396	149	138	9	187	297	348	52	134	271	229	497	227	414	195	462	254	70	349	50	327	44	394
13	76	353	298	28	64	375	234	166	179	398	6	148	103	289	450	500	347	199	106	495	441	430	212	460	87	90	430	253	207	88	18	338	59	389	250	382	48	500
14	7	255	302	143	235	257	423	199	252	208	275	22	411	158	280	33	353	62	49	305	59	14	77	437	382	154	356	187	177	378	435	83	53	344	206	39	469	19
15	495	95	254	98	498	184	162	228	404	418	275	424	167	420	147	22	298	445	4	296	311	157	186	83	119	157	406	281	376	48	98	291	471	12	207	499	414	60
16	475	218	36	265	467	24	163	159	418	306	385	5	129	157	350	211	272	281	423	115	325	107	329	138	253	232	436	315	309	330	223	120	350	86	171	75	328	461
17	116	18	481	399	354	452	129	151	471	331	372	62	102	386	221	434	332	205	87	21	356	355	311	476	445	318	375	37	497	295	485	358	435	162	146	322	284	494
18	22	293	119	354	496	465	110	256	314	246	218	349	232	76	3	64	239	213	251	6	162	37	248	275	297	237	338	153	251	211	240	469	247	265	218	330	307	79
19	471	331	194	20	470	122	67	185	51	7	499	28	56	369	117	418	91	369	35	366	290	12	306	315	130	148	500	252	248	11	24	488	360	78	407	286	358	189
20	83	335	256	144	303	85	339	217	121	296	484	243	278	373	32	391	205	181	239	478	367	212	344	478	410	313	27	199	173	216	462	398	15	422	224	400	468	432
21	275	457	468	407	314	182	247	286	442	6	334	482	276	86	104	491	187	354	311	454	9	306	447	354	81	244	173	291	477	118	491	323	336	201	256	440	85	314
22	441	95	499	81	128	425	125	227	480	148	75	63	123	161	417	194	3	484	358	168	47	112	472	391	145	468	429	31	370	459	277	200	376	70	161	87	102	411
23	17	175	175	404	255	65	354	76	266	491	50	328	34	22	238	426	499	55	112	274	431	272	499	324	268	224	279	77	64	171	334	304	151	351	65	323	79	365
24	310	367	355	151	441	494	423	349	254	229	51	404	456	39	163	358	459	165	233	53	213	372	342	380	211	8	484	410	239	408	278	95	483	492	129	190	92	280
25	190	54	108	333	247	294	224	141	215	164	390	301	396	70	57	120	42	457	106	343	294	254	370	33	2	361	446	251	209	491	417	42	445	484	287	472	486	174
26	357	231	78	49	73	69	368	389	275	23	476	409	219	277	274	13	328	158	59	349	325	500	318	319	10	295	164	5	383	500	103	185	183	483	355	320	181	135
27	341	237	207	296	175	8	109	33	242	380	388	144	107	173	312	365	451	447	109	80	133	290	216	10	42	311	356	426	101	273	405	399	101	443	125	435	87	447
28	317	351	144	177	147	173	410	127	455	70	389	369	152	435	321	167	434	85	51	53	306	276	128	374	194	225	225	166	107	387	114	292	279	116	272	114	384	252
29	444	12	307	315	230	87	251	439	393	247	80	340	326	275	22	373	142	57	117	460	44	87	294	236	413	211	348	101	482	160	183	321	342	25	409	19	218	10
30	493	346	428	75	40	147	92	477	480	210	133	109	61	329	384	72	27	360	86	17	20	459	411	116	220	34	470	174	469	139	5	331	415	109	282	202	325	137
31	110	230	387	431	32	308	436	480	327	292	369	441	451	223	292	388	11	163	277	26	497	162	244	32	23	307	84	404	261	89	139	271	483	283	71	181	111	370
32	163	273	42	478	73	285	226	129	116	301	115	2	101	64	306	131	217	70	292	385	63	493	112	258	253	275	144	252	170	104	196	264	209	134	137	429	130	437
33	89	31	8	299	254	63	124	241	399	365	370	230	395	328	63	344	416	451	44	374	357	203	63	484	16	157	12	326	390	166	192	402	230	120	396	362	306	394
34	342	32	297	222	34	94	78	279	146	458	176	232	226	343	410	360	174	276	37	198	188	474	109	100	403	274	279	476	368	244	116	474	249	72	125	334	149	389
35	65	472	192	403	499	149	174	166	119	349	36	332	500	60	106	205	5	350	158	199	96	168	131	282	168	111	258	41	151	363	456	415	457	493	467	55	161	112
36	193	431	61	16	269	232	258	286	361	294	126	189	167	251	288	235	449	433	111	370	129	25	368	19	254	146	409	60	5	270	317	64	262	185	286	364	185	327
37	195	111	269	414	7	293	248	260	408	240	181	372	204	50	351	122	436	318	394	486	328	267	320	60	175	429	283	292	304	238	214	388	370	72	17	157	400	11
38	60	286	160	89	42	155	299	52	216	72	78	8	85	256	104	12	321	243	274	446	49	263	250	241	419	359	353	92	275	16	496	72	481	386	134	163	16	444
39	79	250	355	60	210	120	153	428	155	25	45	496	347	260	334	62	59	155	400	40	498	275	26	29	345	409	86	183	464	221	186	196	322	183	406	188	388	433
40	318	93	265	451	243	283	383	419	275	138	115	103	409	451	145	483	274	372	369	352	141	37	52	7	418	227	394	359	431	121	219	492	170	316	163	464	435	294
41	150	245	270	385	113	168	121	67	190	101	467	482	138	467	470	195	219	359	54	296	175	264	17	323	329	236	238	229	16	190	279	177	339	38	488	255	222	419
42	322	72	188	99	361	262	88	362	160	109	441	315	47	409	46	166	100	109	470	314	132	467	205	228	158	343	314	311	4	475	273	442	273	144	201	31	432	261
43	48	150	488	81	401	358	38	213	189	280	328	74	175	316	279	160	208	282	95	328	406	260	434	338	390	409	413	237	155	59	238	27	307	412	294	288	472	61
44	394	265	241	57	246	293	138	310	371	113	51	440	11	305	138	255	190	186	385	432	48	191	279	213	434	308	403	443	186	306	134	323	424	494	85	310	400	355
45	281	306	277	314	71	257	11	136	465	298	437	13	69	316	454	50	5	379	213	73	260	344	141	12	160	466	179	28	460	496	492	257	313	172	83	332	355	325
46	157	111	243	105	303	236	391	242	246	127	318	451	309	207	328	319	263	336	388	156	69	318	378	3	366	335	183	404	408	265	184	347	489	11	145	462	386	32
47	307	457	53	243	355	296	297	399	51	358	345	177	196	428	355	200	437	390	307	381	59	351	267	3	286	486	139	150	480	337	360	158	46	31	409	465	347	282
48	291	120	444	76	198	311	123	499	326	45	454	70	121	282	444	330	348	211	322	107	230	191	35	451	142	95	286	117	288	353	70	185	100	181	28	307	408	223
49	131	85	159	337	420	45	328	146	294	441	281	86	347	224	124	199	459	259	457	192	474	436	365	119	341	140	240	457	307	230	443	234	27	81	358	412	134	398
50	44	394	418	354	462	284	17	497	478	267	295	1	310	29	304	487	106	475	342	367	346	19	48	307	16	266	412	396	275	417	305	182	370	454	91	218	500	63
51	494	222	16	486	296	250	465	286	359	176	33	299	383	70	386	236	113	335	193	251	391	270	464	357	367	406	183	215	32	441	318	110	135	344	72	21	226	54
52	217	339	41	59	184	423	489	18	429	197	349	148	351	467	209	233	492	173	379	473	468	394	208	124	176	293	415	83	331	351	90	83	173	490	222	188	363	393
53	179	113	151	326	67	439	22	354	393	200	440	183	330	352	465	106	436	446	173	473	334	177	109	115	223	106	316	423	419	85	31	149	132	296	387	183	299	222
54	300	233	380	48	206	138	494	467	426	199	11	367	165	71	309	458	495	7	205	463	102	67	462	261	439	399	271	85	148	386	468	487	115	32	224	115	326	397
55	74	224	93	80	273	483	65	211	285	115	245	46	345	279	419	127	377	330	367	11	248	317	281	55	423	77	304	137	182	368	344	257	326	369	461	110	347	69
56	463	8	86	161	206	218	199	288	149	54	125	74	360	122	345	343	495	7	463	38	353	12	1	70	5	185	15	381	26	292	271	251	171	436	28	67	436	356
57	457	353	408	48	157	8	226	141	422	466	431	494	5	309	267	197	250	140	82	278	159	226	445	192	288	450	22	54	462	29	182	275	285	118	23	486	488	496
58	95	408	265	259	497	434	250	465	9	242	122	467	197	377	260	202	215	101	443	343	176	452	416	449	192	310	378	348	460	405	104	36	385	215	448	337	421	491
59	269	127	109	34	200	46	385	146	436	358	170	43	56	138	39	351	160	163	264	172	247	371	86	275	198	154	241	142	222	8	410	276	478	134	73	264	495	450
60	204	12	453	238	102	230	322	170	474	391	91	313	466	43	146	362	364	117	201	303	27	388	100	107	15	198	400	305	383	462	183	315	376	80	410	119	117	69
61	494	457	412	101	357	325	348	36	98	475	252	488	430	436	92	192	129	32	199	418	373	500	330	170	461	48	405	481	272	280	124	42	144	35	25	342	127	209
62	157	51	161	477	158	493	42	279	462	429	442	148	314	412	357	279	246	497	196	116	81	400	294	146	33	472	224	494	221	223	461	497	383	156	259	482	121	330
63	191	279	373	25	420	72	360	392	424	459	445	52	295	311	370	73	312	240	216	389	21	277	87	36	130	470	189	250	136	250	356	365	415	275	238	128	33	101
64	280	446	87	147	6	123	498	391	444	2	23	39	488	102	431	376	225	269	50	471	65	449	349	312	381	82	27	210	326	12	406	118	8	36	443	210	458	114
65	101	299	456	54	437	117	102	10	56	481	23	232	187	170	210	368	399	308	222	244	6	188	483	331	197	143	25	235	80	11	265	342	336	454	407	244	476	488
66	94	116	95	404	447	309	340	368	212	348	180	363	233	435	47	20	334	447	491	361	446	424	340	245	54	284	131	358	129	309	380	486	85	119	448	235	264	490
67	196	111	121	394	149	399	497	41	120	109	162	481	423	276	250	50	317	269	211	216	473	361	428	452	39	476	23	313	397	60	466	64	301	350	22	446	53	320
68	391	332	120	181	178	428	327	378	297	38	425	305	494	244	399	300	228	106	312	498	464	441	81	332	290	52	435	5	333	27	289	203	167	259	180	210	234	494
69	243	432	497	134	256	142	470	291	405	246	61	359	88	416	93	200	274	491	375	480	150	349	174	381	165	205	152	109	72	30	118	126	438	434	233	399	389	48
70	431	61	150	205	133	246	489	361	385	84	298	379	447	175	153	94	292	491	196	333	142	421	430	170	177	12	286	24	256	253	233	50	250	239	293	234	75	237
71	443	99	274	443	179	369	72	223	241	62	4	269	262	317	117	209	112	294	448	150	193	213	188	321	121	68	337	36	177	389	486	290	134	349	297	428	354	128
72	57	151	403	105	300	190	208	293	99	54	110	76	295	371	144	392	125	169	161	314	308	171	38	339	58	397	446	397	296	125	163	319	217	234	64	271	23	499
73	391	449	104	179	110	79	24	111	379	388	290	160	4	53	294	433	85	132	303	124	476	386	119	288	349	118	342	68	279	322	474	438	17	184	140	465	454	333
74	33	388	68	6	474	208	45	382	27	463	137	133	260	113	241	331	487	47	264	396	286	175	235	137	393	212	26	36	156	59	207	384	194	37	152	238	237	475
75	61	2	474	21	168	17	430	8	179	226	164	400	439	10	488	422	318	130	348	482	211	450	278	308	43	490	452	12	27	73	266	133	488	337	237	48	233	70
76	500	427	325	474	211	379	268	86	414	252	467	432	50	319	38	290	46	418	153	138	443	193	110	91	240	46	458	250	212	328	134	54	160	330	466	463	389	125
77	161	330	427	29	254	235	244	196	73	485	192	281	397	339	176	342	348	170	62	349	367	54	122	28	290	65	101	157	387	399	3	75	105	325	206	211	305	229
78	451	444	13	293	56	335	36	144	382	157	240	108	435	436	1	339	163	458	175	37	67	7	342	346	340	130	221	164	270	124	26	233	364	6	34	443	355	3
79	170	298	137	35	150	362	283	77	124	88	419	65	93	368	136	6	183	51	335	498	478	493	203	489	131	373	442	104	156	192	317	294	309	373	18	165	389	90
80	229	214	412	209	99	441	351	339	307	249	252	222	117	267	202	428	15	158	278	321	121	212	119	7	406	458	461	47	113	183	85	307	122	151	403	429	364	190
81	149	94	134	280	227	245	379	322	106	256	138	44	430	426	132	433	172	53	91	124	266	231	282	52	472	58	427	5	485	285	488	428	439	312	316	175	424	489
82	271	47	338	94	362	445	489	14	446	430	11	485	394	29	22	459	422	87	264	141	493	465	19	400	499	473	240	77	164	289	273	255	209	189	290	134	188	310
83	246	466	2	230	140	439	104	253	325	276	97	158	141	42	71	21	40	230	355	41	195	119	24	342	82	15	344	94	146	215	25	289	52	365	264	119	299	420
84	367	374	437	55	76	162	383	349	93	108	87	374	185	299	155	451	80	3	150	62	84	189	262	222	2	224	5	77	26	465	293	278	269	215	400	113	230	446
85	285	474	288	223	399	4	198	153	308	396	68	364	191	49	34	462	134	490	112	327	312	240	425	4	296	21	179	419	249	319	258	280	369	442	254	281	462	23
86	275	98	200	70	49	22	424	467	297	240	426	123	23	168	319	285	52	288	87	290	178	312	359	256	142	337	333	300	84	168	83	275	258	185	471	216	467	224
87	184	24	325	197	464	278	335	155	106	25	206	202	138	410	454	459	423	120	32	417	113	439	346	312	233	232	243	418	137	99	379	481	211	366	181	391	343	46
88	284	160	169	10	224	10	270	376	158	189	315	107	460	222	211	82	393	327	387	120	65	352	176	375	441	273	51	80	397	93	429	389	248	368	127	253	74	233
89	233	349	69	303	191	466	97	167	261	71	327	277	334	289	233	284	429	32	358	362	269	320	465	434	450	312	349	358	302	332	183	371	128	262	84	266	13	107
90	417	456	429	342	288	185	81	309	186	402	48	262	88	258	278	179	176	15	217	280	94	457	282	52	67	285	297	442	235	449	398	116	3	329	58	49	430	102
91	261	432	186	235	426	93	243	460	396	113	259	322	74	127	232	445	318	141	176	489	390	367	468	43	141	78	444	414	428	155	343	58	259	35	263	432	379	175
92	486	442	343	432	206	83	449	93	338	83	294	122	111	461	427	122	253	340	459	128	51	254	129	459	433	47	230	209	409	471	452	46	311	391	167	306	383	283
93	498	148	231	480	51	346	369	132	370	12	427	290	490	232	34	92	32	91	359	37	238	260	195	442	308	189	355	210	345	288	49	122	488	248	199	427	376	23
94	101	103	459	341	139	446	162	5	43	202	420	496	199	232	497	134	180	381	291	201	357	456	219	298	309	236	111	408	135	179	235	236	274	245	91	76	165	193
95	268	457	462	336	443	338	159	256	285	412	184	252	439	20	360	145	263	296	258	36	335	290	223	195	91	209	469	326	398	403	29	247	320	1	107	327	62	119
96	372	225	73	154	477	318	303	426	339	215	279	431	497	435	283	184	250	471	183	484	377	425	287	233	363	438	451	15	62	5	218	379	135	456	390	179	86	458
97	285	46	79	224	184	338	132	75	58	284	208	265	386	157	380	5	47	494	354	277	52	127	142	69	329	304	378	303	342	368	496	147	319	241	440	42	132	32
98	163	437	170	449	74	363	229	388	446	196	370	335	316	288	440	153	293	260	248	475	490	74	288	91	314	132	180	157	443	247	500	271	443	380	276	221	330	294
99	5	49	77	102	331	158	163	244	22	378	27	8	171	243	163	35	68	247	88	268	477	201	141	23	118	86	338	457	430	35	26	153	64	156	487	462	268	90
100	64	443	188	356	120	278	99	204	363	454	375	497	208	62	107	355	117	212	373	150	34	45	482	320	331	227	160	441	81	305	52	138	166	150	140	140	406	176
101	6	180	499	416	121	485	199	186	120	344	487	284	342	200	198	158	413	316	176	384	276	22	470	483	455	67	54	366	262	464	236	375	87	473	287	180	437	418
102	205	331	409	393	189	495	254	186	29	467	54	433	296	490	111	458	279	440	12	437	472	405	10	39	475	451	348	490	106	156	451	93	207	117	24	189	390	408
103	268	107	239	157	360	150	419	438	472	356	322	497	335	3	128	54	404	237	322	260	144	244	439	212	64	274	262	97	129	362	85	5	218	101	393	263	325	176
104	175	434	188	492	488	88	351	435	190	307	305	301	121	88	17	95	237	366	311	39	125	103	108	332	249	221	468	131	168	138	437	311	319	389	47	57	123	24
105	254	5	376	110	384	147	252	357	351	63	321	479	283	247	386	333	78	95	272	403	28	233	181	264	169	147	406	203	357	311	59	368	321	452	200	136	387	169
106	184	230	500	495	297	121	251	474	196	278	99	254	257	249	483	373	379	493	187	87	167	208	318	146	425	59	182	245	42	410	162	490	247	342	111	360	88	345
107	372	145	99	233	326	144	400	354	269	30	152	404	268	80	138	279	31	381	29	423	4	29	274	313	183	457	178	111	262	87	333	186	84	99	149	212	390	410
108	75	99	39	307	188	216	262	26	181	468	16	126	476	297	230	256	380	73	118	95	112	325	413	14	44	28	497	356	496	305	375	201	295	71	303	138	289	391
109	494	344	371	29	204	9	124	177	32	287	268	308	53	142	94	214	454	487	91	476	298	408	429	150	12	262	276	170	344	337	290	178	446	208	466	78	7	461
110	440	426	325	132	276	452	407	45	71	25	442	221	227	403	376	164	292	165	156	49	135	277	210	79	425	406	363	125	386	324	396	186	384	34	194	395	246	361
111	289	312	83	329	186	418	154	63	53	325	486	499	240	162	307	376	85	477	208	309	345	308	416	485	275	463	85	138	233	481	429	113	51	491	146	377	151	484
112	168	262	380	424	328	420	309	256	468	122	392	468	305	86	118	418	132	381	469	249	319	480	180	291	103	31	220	495	499	81	357	146	83	454	356	320	212	86
113	478	229	196	305	374	103	437	201	205	428	85	486	195	402	355	210	394	141	457	244	88	257	116	150	319	29	153	216	384	247	343	418	499	430	343	110	75	271
114	296	496	278	172	418	156	310	222	295	105	467	301	213	239	449	50	155	47	213	341	412	112	441	493	56	219	275	440	78	15	332	453	224	2	236	436	126	84
115	5	287	305	257	355	438	437	443	418	154	473	231	10	349	292	325	55	167	500	59	116	120	36	73	368	459	205	23	109	165	307	259	277	69	174	331	130	54
116	52	280	52	11	151	410	456	105	67	216	332	216	15	102	61	180	151	347	42	234	23	116	166	455	186	358	271	340	88	182	361	213	212	71	468	406	414	102
117	98	460	120	89	272	451	53	44	331	86	308	470	151	425	291	400	349	469	124	347	466	125	86	432	175	323	419	94	129	209	91	389	393	75	404	312	144	479
118	104	340	497	255	329	262	133	148	323	427	107	500	125	465	151	70	479	193	282	220	57	166	144	198	312	203	63	416	417	157	409	161	461	423	406	368	125	63
119	68	119	219	491	196	50	317	158	40	273	219	240	160	142	320	335	303	299	276	256	220	92	292	151	387	456	293	407	247	381	444	400	395	196	72	161	379	230
120	172	310	149	396	305	413	9	351	188	349	499	365	11	144	428	490	282	97	209	473	354	147	423	91	119	144	179	100	259	359	254	381	266	249	135	98	244	173
121	146	447	255	500	482	204	321	30	53	455	409	91	315	80	426	477	37	488	298	301	59	55	412	22	393	64	394	168	288	409	452	367	441	34	263	40	228	186
122	486	247	113	297	321	353	214	94	105	357	202	126	71	115	38	407	267	337	384	363	443	146	356	48	124	125	350	466	488	233	239	319	427	2	160	304	433	357
123	279	124	107	439	139	201	421	187	113	17	28	246	122	103	7	199	275	146	17	230	347	119	448	431	432	480	216	490	409	97	466	426	404	43	306	249	310	149
124	202	203	33	413	454	28	129	63	136	241	324	36	75	93	448	373	484	153	256	419	498	402	289	47	396	221	339	304	149	195	494	455	8	347	313	19	281	138
125	353	366	112	10	402	101	165	302	51	126	189	294	281	110	92	400	366	65	360	339	241	103	294	425	209	137	39	202	60	249	275	496	308	386	233	101	444	346
126	315	265	415	110	301	37	132	7	63	99	141	31	429	246	215	392	426	33	190	214	368	310	253	174	189	121	40	389	487	427	255	234	418	305	356	326	68	499
127	351	339	271	491	155	105	287	377	290	165	313	478	360	207	323	262	144	152	120	448	4	80	448	373	346	182	206	53	492	110	466	274	326	269	8	433	367	467
128	390	1	443	15	321	182	69	67	167	191	486	488	376	428	431	186	141	227	442	50	455	436	135	356	350	301	396	492	321	364	80	54	73	228	96	79	254	435
129	42	459	455	459	130	110	295	427	234	131	108	300	169	158	2	457	138	429	298	275	82	11	198	460	186	210	499	267	253	480	171	375	247	261	214	228	314	44
130	449	349	231	358	99	182	38	15	278	369	342	136	89	206	128	181	129	51	252	142	260	483	321	35	69	7	312	461	292	245	21	248	113	463	76	27	397	55
131	307	379	477	210	24	12	54	174	232	184	466	206	256	324	430	118	392	127	87	475	390	176	428	149	377	7	367	53	189	487	37	490	196	259	221	42	120	102
132	72	453	393	291	361	10	179	6	337	264	323	52	7	197	354	74	66	126	78	37	88	170	429	308	496	314	413	322	275	342	443	10	457	326	487	289	123	255
133	19	361	194	462	178	281	141	319	421	191	81	492	445	80	122	339	70	325	170	184	489	346	261	485	21	232	198	288	160	11	212	233	11	262	331	214	152	6
134	480	489	499	33	183	375	378	34	308	405	159	154	383	16	24	356	392	483	296	242	392	153	316	273	497	460	78	491	109	63	237	412	68	343	16	360	288	154
135	162	392	73	239	290	16	139	405	435	313	132	23	182	287	399	447	279	267	68	93	228	38	426	15	38	105	440	207	350	62	112	126	200	292	36	401	365	196
136	421	125	440	48	360	171	206	228	25	161	186	315	260	186	125	317	52	107	397	118	444	117	129	255	38	1	224	102	182	12	385	21	28	364	408	8	79	156
137	23	434	487	392	455	320	193	1	342	350	154	31	439	116	437	284	15	379	106	262	498	289	458	111	249	260	197	479	332	6	391	196	305	308	491	110	155	210
138	348	97	410	455	265	218	444	424	335	166	140	44	440	386	122	23	277	131	358	301	105	377	449	264	410	498	497	216	294	292	206	78	101	456	130	484	486	170
139	6	97	415	497	66	293	305	93	141	124	257	115	305	358	318	16	436	52	21	236	475	272	258	14	387	369	238	348	390	338	43	149	262	167	284	283	276	466
140	89	133	148	174	303	190	317	435	348	123	371	89	117	194	244	112	219	308	61	353	33	78	368	4	196	191	432	423	201	470	51	159	393	119	101	371	291	16
141	374	105	264	367	349	270	17	366	20	498	23	285	428	15	354	390	293	359	446	136	273	230	28	333	253	141	87	286	309	143	82	192	164	495	180	55	271	120
142	435	81	452	498	218	484	316	189	273	435	68	198	214	188	255	480	153	194	421	51	396	395	48	498	459	373	199	170	300	240	354	149	123	346	316	353	211	424
143	31	420	388	175	390	489	419	52	100	91	366	73	417	185	259	6	341	76	227	132	401	164	60	219	281	329	408	318	173	260	264	495	223	245	297	309	413	268
144	471	398	415	16	460	367	404	308	414	296	28	429	312	455	391	54	269	125	203	283	50	79	67	259	446	350	40	237	41	177	55	382	312	24	424	209	361	349
145	221	4	376	391	219	339	349	397	342	262	276	474	415	297	282	356	45	446	405	383	98	156	292	199	33	250	33	50	461	22	377	393	377	58	92	242	329	5
146	499	412	413	64	492	152	227	203	57	247	242	221	394	26	399	235	357	315	269	177	388	62	467	297	43	457	261	351	99	424	348	484	92	120	451	197	437	249
147	22	354	183	188	176	158	413	417	443	115	9	368	208	443	454	363	403	439	333	440	183	131	294	246	468	84	67	80	160	423	319	417	498	337	262	422	324	250
148	66	90	361	142	447	384	442	294	319	319	298	251	233	8	367	32	240	301	96	237	109	94	418	442	369	71	67	244	373	1	119	4	44	418	448	107	227	157
149	492	358	119	112	473	466	186	159	268	364	70	288	275	135	80	77	258	373	172	457	120	116	449	340	237	338	243	224	332	36	180	22	268	465	86	471	442	90
150	425	62	389	173	202	301	472	192	462	426	247	485	344	418	229	348	402	416	473	47	306	406	21	350	391	488	454	464	302	149	479	148	371	202	260	179	20	125
151	227	270	250	461	135	83	349	491	427	94	112	395	394	115	197	350	445	403	48	135	395	173	305	432	26	46	168	435	272	400	471	92	77	347	436	22	399	373
152	257	317	433	113	112	309	48	72	355	269	335	476	114	44	468	298	149	144	210	181	203	472	379	253	210	142	298	477	224	361	157	483	307	263	500	462	471	133
153	483	404	335	58	90	99	15	199	480	273	459	326	3	81	188	44	59	451	413	315	5	96	343	237	187	18	20	262	144	119	451	295	273	156	216	454	429	98
154	485	193	110	378	60	425	75	136	320	349	218	268	433	373	271	265	201	70	409	129	409	265	338	265	354	47	113	19	49	142	116	318	260	438	126	18	326	353
155	372	267	277	490	183	322	376	143	218	102	481	443	471	364	145	192	209	125	166	499	211	454	134	497	464	38	481	362	426	257	397	345	362	200	411	415	385	185
156	90	274	67	266	288	290	183	408	7	283	363	321	378	157	245	455	474	349	394	291	391	101	195	310	10	188	35	179	83	94	264	152	228	64	286	477	37	332
157	282	61	38	113	39	67	64	62	169	323	116	462	9	358	383	439	214	88	384	323	76	286	387	230	311	207	347	222	91	265	203	293	104	263	495	150	262	11
158	235	66	89	109	295	170	460	131	7	335	236	28	284	156	55	393	284	335	192	219	337	4	139	46	390	76	399	263	275	35	160	425	257	213	68	442	348	97
159	436	144	48	186	167	23	394	341	142	368	371	291	85	361	321	338	182	51	333	251	165	200	258	489	425	83	474	216	157	374	350	64	193	414	164	29	78	152
160	69	283	90	259	350	32	343	424	260	19	75	96	173	218	130	297	345	334	88	52	222	139	11	67	207	459	410	220	276	40	359	477	19	391	44	289	271	190
161	66	289	99	434	62	37	495	400	452	497	27	428	452	289	251	174	151	157	448	495	290	186	72	249	286	3	475	80	275	447	370	355	125	87	150	497	492	7
162	405	109	468	252	150	370	16	80	109	451	79	180	54	408	419	319	23	80	50	131	322	106	198	419	37	46	94	5	468	392	498	420	167	366	418	2	196	333
163	366	377	243	311	59	48	401	359	26	231	188	100	174	386	422	318	327	177	30	477	297	20	484	58	225	381	237	159	191	379	370	104	474	204	2	130	156	217
164	269	150	285	281	451	352	438	18	76	395	59	273	196	4	440	188	143	281	159	319	449	359	337	95	176	439	449	246	119	259	375	265	268	200	239	296	51	116
165	221	74	446	385	262	354	98	449	386	313	480	384	374	499	462	206	496	484	330	36	215	275	15	91	80	147	118	442	81	192	438	160	485	61	113	266	252	332
166	153	183	490	339	460	326	91	77	331	237	248	463	438	76	223	431	373	296	75	22	496	147	130	11	78	265	389	152	187	3	66	33	111	354	126	311	150	98
167	30	489	460	340	298	362	123	463	100	109	345	98	38	280	249	392	419	360	232	339	496	218	3	404	278	173	65	112	94	380	488	72	343	460	481	475	267	345
168	16	263	271	144	313	26	320	205	493	484	408	166	15	124	147	24	174	450	239	28	101	148	495	346	474	164	423	382	159	178	253	120	219	257	68	77	396	451
169	372	462	450	124	313	340	82	425	355	105	173	328	89	135	149	375	127	291	448	469	60	258	16	335	301	432	103	385	237	206	214	16	343	439	479	144	457	244
170	338	34	313	405	258	341	157	368	233	343	177	320	414	372	20	500	115	71	457	342	385	226	399	273	372	38	159	74	312	345	406	276	321	459	77	100	121	302
171	378	322	268	112	324	78	226	323	391	81	481	16	395	438	193	72	494	284	431	464	188	92	136	127	7	124	221	472	264	429	419	122	257	33	28	455	27	230
172	37	46	240	79	6	67	436	81	297	124	450	493	331	22	288	93	437	339	186	73	164	234	343	183	180	336	95	342	314	432	300	244	327	156	478	164	19	22
173	358	84	60	451	253	138	156	359	83	358	197	440	450	244	487	74	445	115	194	392	458	254	443	123	423	286	178	264	282	93	465	457	29	151	72	143	81	167
174	264	20	169	424	209	53	52	88	447	49	474	282	261	48	142	470	320	39	54	192	365	90	163	238	353	254	491	292	175	445	486	366	17	165	197	435	113	267
175	477	289	441	274	458	60	154	425	153	210	75	435	336	260	267	189	118	338	472	33	343	300	156	75	149	150	496	304	221	493	152	6	123	71	22	305	318	426
176	50	219	96	109	244	79	317	32	441	267	296	477	85	79	378	2	225	357	169	11	215	364	21	226	474	305	454	84	431	429	419	399	97	252	240	424	268	235
177	38	35	209	37	29	189	455	260	233	415	218	449	223	473	63	190	226	197	106	20	187	7	254	459	284	13	315	217	6	1	147	474	383	98	213	82	493	379
178	192	29	12	455	229	261	374	28	28	394	127	220	28	187	304	359	122	90	310	246	448	369	339	146	450	355	349	471	398	80	492	220	362	4	468	466	75	362
179	256	110	341	493	14	135	302	460	30	220	276	172	255	28	124	284	492	1	390	257	400	108	196	292	390	169	21	466	144	423	320	409	465	213	79	238	117	327
180	425	310	234	213	59	79	185	123	320	234	360	24	29	279	303	478	96	222	82	471	90	332	144	68	394	327	323	394	138	366	201	10	465	443	235	213	201	79
181	376	463	11	259	251	321	283	487	449	61	172	457	460	154	242	358	355	397	400	80	51	378	94	134	349	15	390	438	59	148	118	19	409	313	150	258	377	489
182	81	167	277	262	285	163	63	178	433	303	312	85	15	294	230	240	36	1	138	372	380	55	326	256	226	346	88	409	92	470	285	406	342	485	349	391	490	362
183	451	467	224	24	318	158	157	426	276	168	231	21	480	373	221	356	248	262	270	175	403	28	377	141	101	52	166	198	213	222	326	146	432	13	438	248	208	203
184	470	178	296	482	68	4	9	192	133	265	101	369	186	414	207	164	85	439	224	449	373	286	235	171	97	357	5	345	20	325	447	43	274	189	392	461	322	147
185	483	372	150	287	488	171	339	443	321	94	264	259	474	225	499	334	330	103	452	148	75	231	35	455	480	442	295	115	74	322	196	234	205	88	492	262	180	432
186	85	219	277	286	460	164	321	77	428	80	366	441	103	418	212	380	470	238	68	344	340	152	212	351	469	12	234	283	225	76	135	52	470	270	309	334	165	456
187	202	104	460	326	440	497	265	24	200	376	128	7	417	160	438	150	364	315	378	162	4	397	49	479	408	93	459	459	30	72	225	61	168	137	233	271	239	29
188	430	192	60	225	253	90	172	103	253	369	119	395	389	304	180	496	175	231	325	308	415	409	460	490	340	13	307	90	433	179	160	439	94	72	38	455	22	380
189	470	123	90	36	41	180	419	25	275	354	500	195	212	337	419	26	313	209	175	87	98	36	341	283	441	206	274	259	205	32	99	4	268	147	394	387	146	269
190	478	297	204	429	267	372	292	325	363	363	13	366	66	139	468	44	150	43	400	13	407	384	163	210	460	172	31	66	333	401	174	339	133	490	179	391	431	187
191	13	294	177	338	440	294	170	150	157	206	180	36	155	210	459	323	271	452	398	36	1	78	368	314	59	4	213	373	134	453	212	242	45	454	364	377	438	325
192	388	28	265	173	397	145	251	392	308	17	102	33	471	23	470	71	319	42	75	83	107	235	142	74	363	120	321	354	98	405	144	203	33	437	294	183	449	104
193	171	171	44	84	430	424	410	287	231	324	156	121	256	413	51	53	324	436	312	8	128	134	335	429	434	425	302	343	174	37	2	181	469	10	445	416	21	315
194	364	314	43	169	485	18	221	485	16	113	347	470	35	498	493	399	14	268	11	321	453	459	107	108	470	143	41	402	46	489	356	32	39	431	158	318	95	3
195	217	275	356	261	298	118	272	43	178	176	378	454	478	231	151	327	439	393	99	282	325	291	319	395	237	14	454	429	99	287	356	211	403	10	328	3	432	55
196	308	241	77	205	302	47	354	177	438	61	193	368	188	145	322	437	34	295	288	134	221	461	18	1	391	154	152	346	256	297	38	53	350	260	339	377	401	492
197	223	39	379	118	366	315	338	309	192	460	254	499	481	121	480	248	132	145	215	384	109	318	432	492	351	415	80	495	76	245	482	399	229	144	366	272	96	452
198	88	353	497	461	407	413	235	191	173	16	47	82	496	223	450	343	483	158	466	3	438	427	485	242	241	338	204	426	194	47	182	435	70	122	36	197	496	482
199	484	448	315	108	230	139	403	99	441	38	142	378	159	155	489	262	416	85	168	227	151	400	226	293	335	148	155	373	249	131	260	163	139	190	271	469	310	40
200	434	295	399	91	280	259	42	354	432	20	44	478	51	133	323	195	152	69	474	208	132	298	473	337	122	366	220	162	14	262	241	370	401	63	266	347	338	340
201	420	421	127	72	196	63	495	494	341	497	223	441	304	138	149	350	109	361	361	187	106	475	390	434	456	475	334	425	149	141	192	285	265	121	397	288	378	500
202	240	269	59	307	430	205	263	450	17	328	95	115	220	224	213	377	86	16	54	205	340	450	30	112	453	364	209	366	464	28	458	270	337	318	189	137	92	145
203	287	142	433	330	311	346	405	368	69	272	265	256	193	271	178	229	198	136	365	177	240	365	108	267	38	339	21	448	494	120	378	122	451	27	431	72	263	325
204	377	55	147	218	3	20	237	427	500	182	498	180	300	471	468	339	370	196	192	332	405	5	176	365	115	27	442	167	245	94	311	22	340	278	126	115	381	256
205	193	66	166	222	93	92	109	101	307	392	488	465	375	368	314	245	414	106	474	3	311	357	35	36	198	158	486	358	426	362	403	466	362	322	221	94	231	429
206	238	198	266	358	120	23	208	44	419	217	77	111	169	391	136	61	39	209	201	204	433	284	367	460	491	101	392	239	18	216	119	494	358	496	111	254	496	82
207	32	255	21	14	488	306	47	187	470	273	384	160	410	226	187	354	288	264	27	248	175	12	268	134	127	110	215	406	335	476	192	234	422	209	180	266	303	310
208	272	156	474	175	257	227	157	469	175	500	146	384	131	246	156	247	75	45	308	119	131	303	237	336	147	245	252	467	182	456	387	280	285	442	301	65	406	379
209	393	180	390	147	29	124	140	359	256	282	236	147	492	167	457	400	208	355	163	20	185	51	415	401	7	146	51	17	465	184	234	264	11	223	376	339	31	320
210	96	385	474	192	94	101	19	470	192	391	56	454	97	200	250	59	89	179	129	121	20	223	230	221	21	202	226	146	271	431	196	117	307	358	443	48	163	256
211	24	366	114	53	120	192	496	200	237	389	147	262	441	288	441	382	271	292	159	453	69	321	313	404	446	96	493	427	487	209	378	381	261	471	461	209	492	340
212	37	15	48	317	20	237	364	402	307	190	464	160	101	120	53	22	187	209	223	134	60	430	19	432	424	262	195	254	440	168	302	120	19	70	496	48	55	448
213	477	164	417	442	232	67	324	186	309	276	436	359	214	480	371	295	352	105	237	322	410	218	167	481	394	224	357	228	20	211	158	247	179	381	470	279	352	414
214	412	237	411	273	65	230	17	136	443	362	114	348	372	304	144	127	19	344	356	415	419	37	482	498	367	430	111	288	187	295	263	445	140	363	330	435	268	499
215	265	468	393	297	120	9	150	355	247	8	277	255	190	239	278	335	301	75	130	200	114	54	116	118	37	459	4	67	243	477	81	293	248	315	500	107	351	330
216	73	283	295	11	354	172	413	227	475	111	61	348	84	435	468	476	320	230	335	304	245	270	187	410	219	370	122	240	390	155	475	77	313	369	175	364	332	200
217	32	28	395	427	335	127	284	473	244	473	109	196	416	496	496	281	95	483	135	123	203	112	495	388	166	137	25	414	413	35	225	453	398	476	117	388	95	238
218	399	247	349	195	432	486	433	469	402	485	333	83	340	284	352	37	376	62	417	288	66	276	100	364	394	115	141	124	98	491	201	297	269	104	173	216	321	58
219	129	195	361	275	256	175	169	373	181	5	175	206	455	270	324	224	375	195	67	194	250	107	226	367	493	438	461	389	477	230	285	165	251	112	192	439	1	338
220	275	215	24	444	343	184	269	12	293	421	274	374	454	137	107	340	255	455	31	164	210	310	133	31	60	36	46	304	181	113	444	265	226	482	28	327	425	98
221	54	420	41	243	197	254	134	214	93	63	301	53	342	130	216	146	283	406	35	488	254	243	71	214	87	35	163	468	278	261	290	494	223	95	424	457	478	69
222	223	322	461	223	110	409	380	57	167	79	312	117	400	378	97	242	137	149	103	25	279	414	41	251	497	353	66	220	476	195	373	75	374	189	342	396	295	143
223	213	181	470	88	241	207	389	420	301	476	200	34	258	229	129	425	95	58	431	13	114	125	282	485	42	242	197	215	27	304	107	75	210	271	54	250	9	27
224	15	215	46	306	472	130	100	341	82	150	104	32	296	427	370	60	157	251	433	28	500	277	446	498	102	414	314	438	270	404	180	35	343	477	292	102	197	178
225	144	13	59	342	195	165	430	285	216	264	230	135	256	91	375	433	187	448	383	23	475	163	290	43	314	67	303	166	197	121	354	117	412	168	30	284	336	168
226	250	460	92	140	22	187	452	425	12	371	244	245	464	351	234	240	262	304	125	31	351	203	79	175	495	151	334	311	439	223	224	150	153	452	417	78	235	118
227	480	353	88	88	333	56	303	146	256	106	450	475	428	429	326	312	346	290	79	466	342	430	294	58	289	246	212	2	307	220	386	302	295	245	32	235	317	129
228	278	142	285	95	453	2	148	348	109	259	168	427	269	229	104	100	426	113	185	187	151	127	261	84	487	180	290	275	202	242	85	132	395	75	115	413	149	319
229	320	170	110	16	168	87	165	273	388	2	14	326	470	226	283	202	170	212	26	41	423	132	79	451	228	86	203	228	412	401	207	114	407	38	151	278	62	405
230	335	220	75	170	247	483	228	208	77	45	453	155	403	286	169	226	406	235	163	269	35	34	181	44	43	408	192	374	227	266	41	57	260	44	119	268	175	331
231	183	325	224	224	412	172	472	375	94	380	201	310	286	111	439	28	318	337	368	488	331	207	101	454	478	333	497	248	402	259	253	425	435	26	383	323	436	111
232	420	478	306	346	456	97	45	151	140	206	234	54	40	96	414	416	58	279	31	132	363	197	293	29	436	43	335	232	273	338	487	256	22	443	432	32	196	65
233	328	110	330	143	480	115	232	323	427	156	351	354	147	344	486	82	173	455	212	400	426	292	62	126	438	328	134	40	129	219	224	489	310	362	200	308	66	133
234	423	371	279	478	335	166	493	478	55	94	56	249	95	115	253	349	245	298	389	251	403	105	243	116	73	163	123	169	465	500	324	4	63	44	37	282	146	495
235	87	391	81	162	136	107	477	443	219	274	390	120	354	42	238	292	359	19	106	264	419	222	151	180	123	235	172	172	148	153	106	122	355	458	90	190	350	207
236	378	132	445	370	219	389	40	365	191	276	34	94	141	57	64	451	470	211	344	495	387	250	179	281	291	498	428	234	15	384	267	92	377	152	400	371	12	153
237	471	474	295	263	231	430	289	347	32	44	116	203	202	203	212	164	390	39	480	357	174	416	65	397	180	206	397	155	65	36	316	5	86	233	93	482	477	443
238	374	257	410	445	331	322	20	140	78	291	53	472	238	36	499	5	80	330	68	459	147	219	276	468	107	214	434	384	368	103	178	370	192	315	56	64	266	304
239	344	372	57	473	162	198	226	481	371	188	94	315	7	368	157	20	153	136	498	198	294	78	285	43	113	480	122	47	438	10	153	71	290	162	132	443	127	406
240	39	27	165	461	45	391	255	326	393	403	36	427	474	93	260	490	346	20	172	183	300	89	284	368	489	212	315	56	142	275	311	212	498	173	234	90	307	335
241	11	311	242	129	71	61	96	80	247	309	294	233	97	305	151	444	227	348	71	283	312	11	70	352	208	232	439	118	28	173	403	55	126	356	42	42	64	468
242	175	99	18	388	218	176	365	251	436	232	21	262	396	443	259	489	213	162	15	81	101	184	186	79	342	114	55	93	394	39	497	152	229	230	381	346	486	318
243	83	485	227	403	130	392	173	210	497	74	32	336	316	58	477	463	324	334	238	344	207	162	261	56	2	270	114	173	118	2	251	50	244	385	244	252	35	458
244	345	426	136	97	446	17	196	138	143	425	157	393	374	321	24	494	312	236	251	12	100	490	107	491	424	371	174	346	270	64	32	253	275	358	34	66	339	80
245	296	120	359	236	298	13	366	90	219	363	128	363	460	325	349	358	486	490	7	376	176	319	228	331	107	493	125	13	240	193	38	377	441	23	307	416	367	475
246	419	12	398	174	356	238	358	91	331	417	173	336	197	470	163	417	375	105	165	235	92	208	77	146	273	387	304	356	136	274	2	140	167	340	261	202	217	90
247	41	186	182	338	124	319	231	377	84	260	47	24	169	86	312	350	151	397	400	347	456	194	138	232	190	31	200	151	190	452	394	303	293	241	20	288	384	113
248	418	67	77	199	352	61	242	385	294	389	393	488	439	349	327	385	381	451	288	285	226	392	245	232	223	369	412	357	179	203	21	268	60	344	211	159	344	365
249	219	167	92	179	147	489	187	143	184	317	458	39	366	436	297	298	455	52	393	444	392	256	162	273	466	39	474	490	371	212	18	117	483	360	15	250	387	155
250	250	407	71	126	302	454	395	342	469	159	222	84	344	21	1	345	154	363	69	231	357	407	15	439	345	463	279	470	90	246	144	286	112	212	137	147	152	22
251	264	468	467	142	177	190	4	425	145	391	147	276	414	311	334	69	384	471	138	462	453	329	54	476	360	257	15	482	249	180	384	149	230	239	492	139	225	446
252	465	305	431	28	132	198	395	212	135	434	239	307	27	287	37	183	206	248	247	332	312	191	215	309	409	295	341	500	262	250	111	470	309	480	57	153	127	331
253	266	168	464	207	490	387	20	363	6	38	457	24	276	237	159	191	363	136	191	483	396	343	16	217	176	86	84	288	167	91	13	500	459	355	327	299	320	97
254	160	207	143	116	29	93	442	468	2	288	26	396	231	247	485	124	474	449	394	307	43	113	328	127	151	134	327	213	468	197	351	342	305	116	314	195	342	336
255	389	434	8	266	446	279	309	389	257	367	250	186	226	244	69	200	249	292	284	491	203	160	380	95	58	342	494	30	155	452	202	397	121	284	175	190	55	91
256	303	10	450	435	246	181	498	402	369	414	338	61	335	451	286	100	230	70	259	82	97	373	39	160	276	96	289	233	250	351	217	353	332	459	86	445	331	472
257	198	461	404	430	198	347	390	295	67	220	167	298	201	442	195	304	497	94	190	56	450	436	7	202	254	201	390	294	331	279	479	164	340	158	495	283	1	450
258	278	393	115	440	369	63	217	416	407	146	83	272	100	253	118	99	232	299	132	287	316	112	53	23	19	478	161	475	163	122	18	196	478	449	497	237	236	423
259	137	391	498	81	406	124	46	302	216	275	497	452	305	42	319	372	137	170	184	296	307	344	24	180	386	240	96	439	149	86	170	157	441	62	57	203	64	224
260	56	83	267	91	283	454	200	111	255	462	98	231	42	95	38	350	413	453	109	399	104	53	121	413	297	374	262	109	177	94	167	374	231	174	220	91	384	484
261	59	237	4	205	377	350	317	113	356	277	206	193	457	25	313	126	489	406	341	345	353	182	76	309	211	161	489	147	435	441	106	9	152	331	423	215	357	29
262	355	182	58	417	266	236	150	389	165	331	39	219	408	480	304	387	89	229	54	332	305	239	91	452	158	496	41	393	90	306	476	7	28	486	39	460	416	102
263	77	136	183	359	51	51	471	276	492	426	203	147	165	301	453	295	79	68	433	405	163	473	283	72	231	427	237	154	320	309	170	114	214	436	345	323	255	94
264	226	169	247	339	152	144	483	268	71	44	239	363	57	432	366	169	314	196	488	414	69	470	320	145	106	227	141	7	96	346	148	307	317	362	283	418	276	269
265	237	362	81	168	428	148	281	395	120	343	423	97	262	375	337	16	467	290	451	417	143	218	88	97	434	99	412	406	300	281	1	41	108	230	446	6	65	400
266	275	270	421	179	362	297	406	268	374	291	356	295	64	74	136	416	99	57	27	389	230	187	420	420	478	463	262	115	10	274	250	246	175	283	345	419	428	89
267	5	457	287	238	418	262	405	369	423	388	427	308	181	294	138	495	184	365	314	137	255	491	225	383	389	403	339	210	448	167	155	21	49	83	445	457	454	140
268	328	104	9	134	10	261	90	384	85	165	397	59	61	375	223	205	111	396	492	265	326	439	50	267	180	385	120	427	97	342	241	182	384	24	55	159	207	385
269	135	35	388	268	436	189	68	89	254	178	301	381	354	338	394	282	137	378	244	294	109	402	467	4	172	358	320	336	252	488	375	79	443	171	242	254	374	26
270	137	210	226	307	301	217	447	134	490	441	127	247	99	413	251	476	334	430	291	250	306	214	208	7	429	112	380	398	166	82	133	488	226	90	335	389	32	73
271	372	142	105	313	315	205	177	87	318	400	437	280	500	6	209	337	269	264	115	189	359	265	45	57	41	173	395	225	449	195	39	103	1	498	456	184	245	273
272	48	22	394	472	483	25	399	179	498	224	108	435	422	7	202	270	159	498	170	1	29	130	161	129	451	326	148	220	137	205	187	433	110	301	412	435	419	42
273	133	401	417	462	35	242	34	437	282	186	89	240	26	60	165	259	392	231	98	138	361	88	196	265	357	290	288	86	485	132	180	482	336	436	23	171	301	262
274	331	72	346	70	165	133	387	92	310	240	293	168	206	311	352	249	397	270	111	359	329	174	252	225	367	51	441	366	132	475	403	265	67	436	14	253	84	458
275	120	404	295	145	307	198	95	102	103	390	62	391	3	468	285	432	415	203	415	175	20	85	33	296	34	407	425	122	320	151	116	264	419	311	90	462	77	302
276	231	243	137	149	168	500	404	21	165	198	16	462	396	216	293	197	163	320	187	250	98	349	267	63	204	271	164	38	169	168	304	394	258	36	445	166	18	258
277	446	294	321	450	58	139	164	206	139	248	191	182	30	28	280	279	480	394	147	452	424	231	172	248	493	234	387	30	350	377	156	92	496	428	327	458	342	418
278	411	486	458	137	262	57	62	85	89	472	324	217	329	268	24	54	428	156	179	239	153	469	408	152	267	90	165	133	146	161	278	361	69	406	399	271	230	197
279	423	203	309	10	327	444	13	154	411	75	442	90	483	367	303	115	486	379	472	288	57	90	368	290	461	14	321	185	329	472	74	39	284	132	201	295	333	356
280	158	313	263	299	91	194	88	445	217	160	361	216	269	25	454	466	480	94	159	171	68	314	496	148	495	34	117	340	72	418	298	10	174	335	467	189	134	133
281	44	234	28	252	472	344	243	435	275	477	66	454	377	186	51	100	161	114	425	205	31	162	392	182	117	316	451	302	225	1	238	222	153	37	109	193	335	65
282	496	235	82	211	364	295	192	284	36	363	292	431	359	167	328	114	131	28	163	499	416	443	31	344	67	480	341	487	51	8	396	78	252	415	77	300	58	262
283	216	250	225	429	102	114	280	115	253	295	432	164	291	107	295	391	366	49	80	15	433	86	382	124	100	123	212	492	211	346	341	202	412	69	56	130	314	248
284	487	141	326	26	128	69	80	387	282	469	113	203	205	10	330	199	74	90	239	370	149	430	455	339	293	357	10	9	406	491	38	201	119	162	254	484	303	402
285	294	181	23	72	404	216	95	158	490	50	139	138	88	400	225	82	189	414	193	398	96	77	350	14	265	111	374	214	127	137	188	229	243	244	112	497	382	421
286	209	119	420	333	500	118	448	497	80	346	244	272	87	456	422	77	238	19	418	132	2	147	470	199	12	314	443	316	78	146	60	172	299	269	229	463	13	190
287	340	161	52	144	463	15	370	14	6	324	439	51	76	484	70	28	186	8	150	29	72	51	341	103	193	373	219	461	134	63	232	132	480	391	78	386	414	58
288	365	432	219	53	434	98	350	396	83	308	342	51	24	390	122	184	349	103	156	32	311	463	127	297	436	83	165	490	69	287	405	486	105	142	127	372	354	309
289	240	48	392	431	470	464	261	35	409	352	142	129	138	77	110	57	489	259	409	298	192	393	370	34	351	254	223	215	257	218	434	140	246	222	281	388	29	423
290	45	389	166	451	405	209	34	277	275	306	77	64	395	302	288	118	104	53	482	401	394	66	323	31	214	324	224	328	292	150	366	440	165	276	274	492	186	45
291	249	485	288	109	191	391	315	24	331	478	50	370	124	139	65	406	229	472	345	331	92	454	56	229	274	9	429	194	25	312	180	30	388	223	139	400	299	9
292	313	411	494	494	90	241	402	451	459	243	140	279	364	81	287	83	134	40	138	217	441	48	6	286	84	265	181	470	125	340	17	464	191	150	337	389	183	411
293	233	228	316	356	496	297	384	206	486	489	238	274	96	219	277	371	437	34	158	164	449	143	106	207	481	396	398	296	177	275	369	60	13	382	455	222	256	65
294	450	46	129	316	438	55	208	277	152	208	411	174	58	421	28	133	204	399	243	463	338	209	311	366	275	213	185	154	295	428	363	486	490	223	181	164	137	260
295	424	491	445	484	86	12	408	89	281	496	420	333	330	214	282	430	7	154	207	428	126	422	26	311	429	177	263	332	57	7	367	405	380	247	264	276	152	374
296	495	7	387	253	65	31	385	217	282	83	243	128	152	104	27	317	456	256	165	87	307	497	116	360	307	452	378	126	25	128	40	330	150	496	320	164	51	221
297	489	169	249	105	285	4	328	268	449	397	409	71	363	344	229	267	349	192	204	324	298	421	290	222	481	398	175	490	336	362	81	436	372	212	339	291	142	351
298	291	221	102	92	301	82	204	361	3	364	355	398	426	16	430	99	85	300	298	243	211	201	384	85	75	174	277	108	253	95	403	500	234	55	298	86	448	21
299	58	299	6	318	363	153	24	50	500	325	449	327	185	66	462	397	95	246	246	394	456	488	258	30	280	401	254	465	37	387	123	452	338	83	423	58	485	379
300	5	111	443	340	129	64	19	261	490	272	483	25	495	106	433	85	316	63	132	152	70	168	411	323	78	186	363	32	128	122	117	47	217	83	431	249	347	194
301	149	220	106	479	42	198	403	475	147	490	94	252	346	467	272	410	89	494	172	498	423	54	259	23	366	102	6	265	296	195	463	450	297	107	158	294	329	274
302	223	423	49	406	113	58	51	135	480	356	87	217	373	184	455	267	157	348	137	111	25	243	119	273	283	495	499	367	86	55	386	123	369	107	471	391	269	264
303	204	491	125	342	393	171	55	54	354	387	225	255	367	145	209	85	77	422	101	439	328	152	447	414	452	457	54	305	426	499	305	168	92	114	211	66	79	127
304	479	229	235	266	414	196	341	201	270	149	473	374	102	15	480	4	171	427	40	307	11	255	280	450	71	418	357	221	429	467	207	316	45	282	314	143	174	225
305	1	500
306	206	290	430	416	188	117	201	304	295	110	394	45	45	194	266	72	72	350	129	107	335	372	192	154	106	466	310	168	81	351	224	194	347	262	255	231	58	381
307	153	470	432	34	418	405	78	114	179	442	305	306	498	326	301	105	164	354	440	438	289	32	376	101	348	187	120	294	197	106	482	227	72	96	35	177	319	191
308	462	158	394	189	112	251	275	12	169	456	204	400	261	171	497	103	173	349	179	491	497	301	375	84	87	150	479	72	480	463	135	322	279	411	335	117	93	188
309	188	65	181	256	62	52	472	287	270	384	235	221	165	483	354	97	500	229	338	258	432	208	415	225	19	390	41	411	118	358	230	410	278	105	452	119	272	125
310	42	356	369	437	190	475	10	255	97	386	233	243	272	140	384	355	271	3	120	260	266	100	72	426	180	447	173	63	205	452	314	197	453	463	263	483	38	219
311	447	72	229	388	97	403	356	70	392	335	60	124	394	161	330	227	69	300	137	176	171	447	121	318	207	268	374	14	20	41	70	30	110	453	252	1	113	138
312	483	50	150	118	184	102	119	28	221	7	377	146	46	138	50	158	403	75	282	145	365	139	192	337	308	247	412	93	217	361	88	186	272	465	395	429	137	271
313	391	35	176	412	238	182	486	195	451	133	449	35	55	26	356	82	258	66	215	144	195	143	321	379	19	249	68	13	6	494	24	311	364	414	263	205	365	406
314	211	268	282	426	268	21	11	152	255	419	37	366	336	477	370	27	337	41	317	454	135	196	60	280	440	262	254	275	281	188	229	131	142	312	310	68	180	214
315	453	397	306	215	48	361	12	345	8	225	338	463	340	328	118	313	406	165	207	337	61	44	164	149	376	79	318	9	147	167	224	198	49	219	488	154	14	416
316	1	45	125	101	43	366	397	432	134	399	17	153	477	353	109	469	392	371	222	413	489	433	383	262	73	213	114	203	233	287	269	106	183	447	27	331	156	27
317	493	67	287	151	92	38	200	488	126	308	8	342	291	63	369	130	404	60	408	186	302	340	303	146	74	428	406	481	351	92	325	138	227	192	85	478	287	28
318	348	265	338	244	78	459	95	446	204	242	190	15	269	13	124	432	238	430	198	36	435	61	483	405	212	334	174	369	43	37	285	431	144	288	483	391	16	403
319	58	181	356	93	93	390	141	349	4	104	135	377	195	487	441	457	318	344	421	203	144	375	305	417	113	164	266	96	10	332	56	42	356	352	298	59	104	406
320	4	373	430	380	369	194	303	430	478	448	74	117	484	372	380	91	345	47	194	264	200	176	86	120	420	418	264	456	221	434	355	447	419	157	371	126	49	245
321	277	215	351	287	114	41	256	399	231	240	430	411	257	396	265	37	224	295	257	166	310	116	153	466	122	76	436	109	87	480	471	92	123	190	456	226	422	122
322	204	248	240	90	411	217	269	398	27	491	245	478	145	286	35	487	23	152	381	17	399	37	450	427	106	1	106	387	178	156	284	370	249	232	83	103	19	106
323	251	343	24	133	285	37	54	21	150	117	269	454	177	456	380	483	204	351	424	308	40	331	479	63	322	56	273	191	234	453	468	438	3	114	117	173	107	304
324	427	74	360	112	382	322	467	53	412	255	95	233	377	48	352	77	6	132	138	395	343	267	204	439	318	131	445	167	149	405	20	492	111	342	446	219	70	312
325	236	1	329	478	297	173	283	327	202	491	229	23	61	257	392	368	152	93	375	232	222	22	61	441	450	173	101	214	216	152	484	4	283	238	176	461	49	20
326	280	410	305	357	16	5	489	494	243	282	12	289	457	131	372	207	64	334	201	495	489	217	361	76	66	155	95	497	320	275	424	163	46	344	419	113	219	141
327	359	266	40	243	385	402	156	171	88	395	324	345	85	480	447	119	250	449	328	474	251	386	280	332	432	291	130	287	394	389	85	11	95	477	477	78	455	240
328	374	419	421	12	481	98	122	132	206	473	57	443	451	98	114	450	472	2	85	167	271	325	168	313	284	407	274	371	389	27	282	197	279	80	408	18	228	480
329	441	451	150	442	493	419	478	459	316	19	319	218	417	253	280	488	255	163	29	110	375	452	203	238	431	15	492	3	185	495	267	204	352	360	213	103	330	101
330	240	38	148	11	378	456	497	260	359	492	457	452	466	76	74	167	272	482	494	449	221	361	301	202	33	442	134	136	380	82	337	199	436	8	156	121	452	147
331	56	141	62	254	450	421	210	198	433	255	238	372	288	342	168	286	46	88	306	297	325	397	318	330	320	278	134	382	411	118	21	50	410	326	245	99	313	386
332	78	356	419	332	212	53	471	495	441	138	235	96	350	187	185	42	25	234	139	309	290	172	179	249	73	299	184	485	275	430	451	183	379	160	217	479	220	240
333	313	434	225	135	334	42	118	107	43	34	340	403	465	323	432	4	495	25	210	253	200	366	333	104	4	203	8	466	358	425	334	208	449	141	322	286	402	385
334	480	442	393	348	244	107	220	339	102	264	200	137	34	181	150	321	91	305	439	285	383	171	37	92	114	482	410	101	244	395	484	107	422	68	147	434	438	347
335	189	35	485	433	36	5	194	473	250	223	456	20	306	329	207	476	385	389	367	285	266	284	54	137	471	171	275	352	187	265	224	106	165	111	58	494	19	72
336	124	238	34	406	147	307	84	11	187	228	365	6	311	412	350	18	417	357	447	368	105	270	166	266	207	259	299	224	219	319	133	319	80	152	199	478	484	49
337	108	146	8	376	64	89	241	236	301	451	399	386	140	287	83	198	140	115	9	265	321	368	96	136	71	304	107	307	56	313	87	445	143	214	215	234	243	402
338	46	27	337	456	250	245	463	20	354	114	142	468	203	178	108	247	378	281	176	127	23	291	26	462	86	340	101	267	437	61	211	259	302	78	43	184	135	289
339	389	171	151	385	86	398	64	187	157	187	354	246	206	149	346	201	275	464	433	303	444	284	49	114	102	78	421	428	264	148	408	352	159	368	51	239	245	80
340	470	479	261	96	391	440	188	346	374	203	173	18	384	14	443	358	398	161	117	398	103	164	130	373	403	425	331	50	490	420	244	82	382	402	391	170	111	102
341	177	68	356	235	377	13	198	33	260	492	463	26	444	201	72	381	414	468	425	227	79	392	163	215	283	261	322	242	361	451	17	188	232	440	81	469	432	100
342	58	223	415	141	239	166	56	185	387	96	120	347	267	119	357	2	461	377	419	171	7	376	367	284	450	423	283	194	165	87	46	223	493	327	211	249	449	338
343	13	353	226	352	63	168	493	92	321	277	124	249	393	185	384	477	423	48	416	431	461	143	259	88	497	297	367	291	241	457	203	52	259	163	299	98	189	406
344	429	335	40	317	337	164	51	172	490	161	308	230	357	330	137	48	80	377	333	175	335	54	119	106	448	260	222	204	402	168	493	46	441	406	167	34	206	321
345	285	351	109	157	170	130	10	36	198	401	149	311	70	285	489	117	17	188	145	11	325	111	496	371	305	278	230	85	312	367	336	69	139	349	136	497	302	137
346	12	317	341	427	441	137	310	190	59	59	141	92	233	52	263	492	268	470	208	398	340	71	479	495	77	135	13	470	459	442	21	498	243	414	190	371	38	115
347	83	32	48	138	126	70	214	447	172	50	297	113	42	32	296	12	382	339	279	302	493	172	404	231	478	256	97	346	332	51	240	372	444	64	59	318	499	292
348	115	211	282	253	397	243	233	352	476	464	276	471	437	231	230	233	432	473	289	159	6	90	210	390	128	75	184	81	124	31	208	42	364	20	192	416	243	281
349	409	426	284	307	36	52	404	292	117	188	479	347	351	75	397	426	371	433	312	180	439	475	226	88	452	70	419	141	273	248	159	225	457	215	464	55	229	18
350	236	131	497	160	243	474	165	129	453	421	308	366	34	290	319	67	146	425	209	343	206	359	430	422	414	141	65	11	225	351	160	268	204	259	372	8	245	401
351	381	127	210	238	370	140	489	487	261	262	180	356	137	478	193	221	260	68	132	388	283	162	27	91	381	363	162	261	171	9	357	469	124	262	166	33	35	156
352	457	5	313	339	412	175	286	386	322	289	280	94	157	35	70	298	204	275	321	282	417	326	63	310	1	112	8	19	485	32	403	92	348	421	5	9	433	414
353	302	293	489	478	335	296	244	125	454	106	113	275	67	430	397	32	316	319	9	132	265	216	353	309	131	194	390	2	173	233	140	95	450	134	427	357	154	126
354	38	487	112	321	303	382	179	329	331	285	291	236	24	423	106	113	398	165	74	200	420	164	310	25	112	344	364	49	407	5	71	237	357	75	57	178	376	151
355	415	259	113	180	27	143	180	365	348	424	147	210	220	39	403	334	341	105	294	312	29	362	141	243	202	302	80	137	208	51	258	229	126	485	467	83	398	423
356	433	263	51	266	73	119	474	115	466	319	428	201	413	336	124	180	285	375	498	408	403	178	176	135	293	53	370	145	356	486	202	495	484	7	87	426	234	131
357	87	276	205	2	211	350	335	140	107	290	227	356	372	299	474	35	154	109	404	495	33	192	347	306	230	265	457	76	384	61	6	390	30	351	296	124	416	31
358	316	80	467	77	66	363	465	238	48	200	427	447	374	234	476	70	297	18	149	463	210	144	68	443	314	77	84	1	143	278	229	210	472	151	305	288	184	214
359	258	191	359	169	337	247	291	268	448	105	273	383	441	411	226	304	323	66	183	429	465	390	152	40	240	162	183	496	206	65	482	310	399	226	60	479	379	387
360	77	173	468	271	49	52	166	16	263	278	196	269	454	481	102	285	292	130	74	350	270	464	231	356	301	417	490	458	155	3	41	255	10	500	296	281	215	119
361	313	262	303	325	419	377	107	175	452	280	182	59	395	32	184	134	457	428	319	12	152	71	340	283	482	467	110	379	118	463	136	170	443	200	5	364	403	325
362	30	389	208	32	53	195	147	193	332	445	249	107	145	212	470	241	112	321	64	103	200	253	309	276	101	77	40	167	417	242	42	345	356	7	197	480	182	229
363	47	93	361	189	377	494	487	112	361	102	470	443	397	440	117	124	235	277	483	237	116	303	354	61	85	416	83	362	35	349	9	346	19	426	17	438	90	304
364	172	301	205	419	327	331	145	349	209	4	296	165	376	69	129	203	342	142	60	289	474	84	146	48	151	300	206	263	322	175	235	26	106	65	343	389	234	86
365	468	376	132	313	396	470	431	419	321	86	175	330	69	226	212	192	272	120	304	193	400	275	134	199	308	411	221	149	366	220	77	124	108	436	425	26	177	371
366	38	190	86	155	247	44	299	395	481	321	411	378	98	232	423	404	55	91	414	152	104	109	227	191	327	334	249	22	342	224	482	221	304	468	360	304	244	294
367	299	271	181	497	36	454	400	9	400	202	150	311	332	122	207	35	114	452	221	492	462	421	441	41	102	207	461	63	22	393	414	31	394	472	468	99	255	268
368	199	461	64	225	147	1	352	464	242	102	465	333	275	153	320	2	193	483	331	389	387	172	135	418	115	434	176	4	376	92	412	471	244	263	405	398	109	280
369	275	270	240	35	194	453	252	61	307	287	432	343	403	339	67	97	370	477	457	181	245	234	310	186	405	37	363	183	168	268	186	267	25	381	168	60	99	50
370	120	197	394	230	128	473	201	331	262	187	391	48	152	321	464	31	270	131	260	492	210	317	116	414	259	337	324	171	91	381	13	472	428	39	264	445	454	432
371	334	447	251	325	39	323	118	393	402	413	500	220	445	1	389	290	239	253	307	48	182	25	309	163	190	323	87	75	35	148	476	497	49	9	299	2	152	400
372	277	160	89	208	459	303	348	139	30	453	20	488	92	210	409	434	3	351	460	238	381	99	282	464	372	8	50	439	415	122	47	90	257	284	415	412	190	113
373	402	297	364	125	497	252	463	242	151	314	94	279	230	124	142	320	233	295	442	472	436	147	397	125	260	275	399	200	350	146	161	204	451	12	317	163	311	429
374	127	368	63	406	56	74	224	185	448	279	392	1	378	15	157	86	71	35	51	232	350	412	438	158	315	107	176	446	428	265	271	138	43	365	67	205	413	65
375	262	140	201	68	90	405	67	500	71	438	402	453	374	432	480	192	480	290	322	460	375	383	105	495	373	301	132	301	120	370	36	263	96	246	131	429	195	496
376	201	496	349	241	464	22	82	324	295	192	416	485	214	128	179	49	420	231	121	167	215	42	207	385	139	91	444	448	9	287	466	326	90	224	14	269	134	473
377	56	394	428	314	291	471	104	238	348	180	219	226	105	64	389	379	282	272	467	40	156	246	458	435	322	178	385	159	372	387	218	311	36	233	335	70	405	249
378	79	379	121	500	107	261	1	203	65	460	389	36	264	26	11	426	243	270	293	310	303	11	215	251	105	446	292	214	296	139	132	403	292	414	423	116	95	183
379	168	331	307	485	92	377	423	380	142	128	455	223	214	173	428	159	472	71	420	459	206	73	376	384	320	235	188	274	292	32	315	102	379	79	224	398	194	45
380	475	250	223	190	327	442	105	363	27	201	345	263	310	103	122	87	121	172	300	15	322	87	19	55	257	138	331	105	327	361	184	226	188	391	482	27	452	298
381	163	469	181	343	323	389	451	344	119	476	376	223	16	97	276	173	26	42	240	424	398	68	428	427	481	435	241	261	166	385	189	97	423	68	227	296	190	23
382	315	282	63	40	255	488	80	176	6	396	435	81	155	253	462	396	173	57	208	369	226	429	72	163	115	100	165	319	301	19	159	125	324	490	107	112	440	497
383	182	29	296	296	141	233	66	180	167	384	400	146	25	130	120	324	128	377	412	226	396	293	437	7	72	207	468	474	205	115	97	491	91	85	147	115	274	298
384	67	296	23	495	371	402	210	67	215	80	55	67	151	466	224	1	382	272	213	145	495	377	436	439	133	242	472	196	188	407	63	488	340	375	201	346	92	97
385	324	359	323	31	55	45	145	47	222	258	44	461	415	407	386	204	76	127	390	72	377	500	117	367	61	128	164	54	356	193	466	212	174	60	230	252	262	68
386	50	414	9	422	430	282	474	93	391	27	122	85	124	382	227	63	270	128	279	232	223	369	225	257	295	241	290	323	102	168	412	303	486	409	330	188	142	97
387	405	236	60	428	265	395	5	303	315	498	99	9	450	394	472	390	221	264	498	104	388	128	489	170	256	225	329	217	47	13	463	374	350	435	131	338	203	411
388	293	497	375	177	20	63	312	236	455	48	481	285	355	344	443	158	16	59	275	311	249	141	331	258	80	195	293	299	328	139	216	144	476	490	332	59	206	140
389	138	384	6	89	349	192	121	111	496	100	468	499	48	48	143	495	34	499	389	230	362	157	207	299	179	126	214	36	206	113	452	228	194	412	215	280	110	105
390	308	273	394	261	23	343	200	386	360	313	423	446	427	421	110	98	203	169	99	267	201	342	475	84	64	263	142	442	176	139	328	461	44	261	434	158	78	130
391	334	215	365	124	411	463	32	305	268	307	388	82	168	325	177	440	227	327	90	481	496	398	349	222	495	459	464	336	41	32	17	176	331	283	100	89	316	300
392	410	359	426	175	75	265	41	366	345	73	465	413	235	303	311	314	55	289	299	273	263	341	203	470	214	298	493	10	121	196	404	120	259	111	325	392	468	442
393	354	497	418	349	268	425	340	304	224	174	285	98	497	111	236	246	44	442	115	24	352	430	209	225	158	146	290	247	283	44	59	168	177	174	379	445	180	482
394	298	410	25	213	464	469	170	239	276	394	184	472	460	225	303	236	273	288	11	322	362	208	68	56	335	140	395	59	466	253	224	13	319	499	362	312	130	314
395	392	9	412	261	100	282	362	10	336	238	176	283	348	45	22	97	488	217	445	6	106	82	194	156	196	320	214	313	72	403	67	267	199	206	101	170	199	77
396	383	381	444	485	25	288	40	71	135	226	383	244	231	49	333	132	454	180	485	76	72	439	361	251	66	248	74	2	90	93	254	164	472	186	50	99	424	142
397	328	326	269	309	136	50	151	50	393	138	403	77	103	79	357	65	313	326	283	372	110	170	296	455	90	357	331	206	90	294	237	187	210	206	173	364	123	224
398	492	173	233	496	299	241	98	32	480	115	143	405	379	364	338	218	233	300	431	410	202	438	438	128	452	258	68	229	479	119	404	352	57	139	442	478	157	56
399	283	9	90	312	236	264	437	38	27	372	429	41	318	405	83	40	399	452	270	376	252	322	182	304	294	271	241	322	415	365	220	4	126	293	112	390	319	252
400	178	178	150	332	30	277	202	225	455	178	206	307	8	177	493	256	382	171	67	39	413	88	185	427	390	460	74	321	220	36	347	407	363	162	222	134	24	474
401	13	151	123	461	79	119	137	440	227	135	475	491	459	364	92	92	281	275	47	331	19	404	149	134	135	317	104	121	369	310	369	491	166	101	491	184	231	101
402	312	159	397	449	186	300	362	434	102	76	168	238	77	37	78	225	428	128	24	23	200	230	288	257	354	55	446	130	333	403	136	59	153	357	126	406	205	121
403	94	217	342	234	80	481	388	371	130	259	166	327	264	113	28	125	230	204	109	165	122	28	242	9	399	58	375	281	440	339	23	227	480	346	415	147	429	75
404	466	128	37	243	482	444	133	139	248	128	261	123	242	315	314	348	479	35	479	365	282	197	312	83	33	205	96	127	267	389	5	337	227	307	438	56	325	298
405	497	240	275	62	305	465	459	465	484	31	230	286	139	218	270	319	492	430	214	178	26	188	75	310	99	472	286	188	321	36	398	350	50	425	278	10	441	5
406	389	287	350	473	416	7	92	90	78	261	335	326	403	412	16	28	370	187	301	288	6	4	335	468	224	208	213	178	72	274	108	254	186	101	189	267	193	277
407	61	258	147	405	332	243	376	414	385	109	47	274	472	93	384	443	170	279	404	84	194	135	124	61	309	151	37	147	86	86	415	493	289	215	492	441	405	302
408	201	330	4	97	319	213	147	114	61	403	371	54	31	66	8	401	360	230	322	429	183	335	48	146	115	193	63	265	59	223	261	312	235	490	169	410	426	253
409	76	61	320	204	186	313	308	392	325	309	133	50	324	39	299	484	173	231	53	404	416	380	78	122	324	330	384	463	332	436	252	498	482	172	159	425	402	380
410	277	497	213	244	477	346	362	194	106	258	280	401	324	443	484	496	458	286	85	117	258	13	499	500	143	191	250	177	401	280	242	445	317	104	433	33	1	39
411	330	58	65	19	212	138	357	184	404	337	186	304	181	146	439	416	38	159	231	55	154	56	364	370	481	73	84	242	111	45	22	307	275	464	286	315	29	173
412	385	93	360	476	81	94	316	450	498	149	274	355	193	373	496	151	128	463	105	216	96	373	247	498	81	389	81	214	450	493	171	413	185	480	211	456	377	260
413	42	421	326	196	35	459	155	151	29	225	456	282	184	411	155	218	325	227	285	345	255	18	284	25	305	447	254	197	176	95	466	400	376	331	30	69	266	444
414	203	4	272	2	1	58	332	439	431	41	384	406	238	119	344	313	287	209	45	176	400	376	196	453	236	300	335	434	285	25	470	34	270	185	284	461	199	125
415	281	280	292	451	155	493	460	270	466	313	64	159	433	339	173	208	297	34	49	227	43	93	329	363	405	166	278	23	496	254	393	173	449	463	3	494	462	61
416	37	487	119	279	443	39	302	327	2	113	73	115	434	380	40	178	245	79	196	248	114	326	202	240	451	117	39	160	448	290	440	272	15	282	133	408	35	352
417	353	384	180	173	174	484	54	126	433	422	84	182	369	449	397	55	477	424	337	217	110	19	195	187	473	26	102	391	22	296	281	329	264	458	81	377	74	430
418	365	198	166	481	173	490	420	3	127	57	173	31	312	212	264	477	294	128	406	124	233	205	27	305	154	204	188	74	13	62	494	20	478	194	338	303	287	143
419	392	321	436	123	87	382	179	173	392	463	132	108	67	219	326	159	482	189	392	301	358	342	390	173	383	386	273	114	441	291	360	249	138	450	393	256	67	447
420	23	2	31	142	361	443	255	186	498	147	381	284	43	240	79	473	24	355	159	31	269	392	43	485	355	227	115	453	257	6	47	154	133	255	435	463	421	400
421	241	53	494	364	498	179	289	374	20	353	447	236	250	150	438	305	140	95	47	100	311	405	181	293	252	448	169	467	97	1	352	445	451	168	114	117	228	390
422	157	280	498	40	104	432	442	114	348	94	42	168	45	146	291	39	92	239	163	145	193	336	99	203	430	412	151	419	131	51	187	103	55	244	96	103	216	103
423	229	86	301	160	197	439	494	195	10	252	276	325	386	249	423	417	184	482	418	243	473	115	109	458	415	489	361	324	117	254	135	131	438	457	59	383	325	16
424	380	16	332	441	104	405	143	431	260	69	273	162	141	347	221	206	313	392	377	108	155	384	59	198	471	210	16	465	126	432	83	94	313	202	58	311	439	343
425	222	163	145	182	129	410	421	372	128	45	142	147	53	243	349	207	367	134	94	393	158	404	174	251	69	171	251	166	212	352	361	273	144	127	434	426	77	356
426	467	93	303	264	76	475	174	357	113	88	471	477	263	321	410	371	252	10	353	341	261	210	301	166	494	198	418	149	248	342	416	166	348	472	433	278	217	98
427	10	404	171	486	176	394	358	213	91	248	471	483	100	393	23	119	55	363	24	421	78	12	461	19	28	22	291	48	123	220	196	372	258	450	321	346	314	476
428	274	210	113	274	389	203	491	491	372	268	67	448	296	174	415	356	12	50	447	13	80	116	100	184	208	460	188	448	390	29	188	93	40	287	358	296	234	77
429	284	212	321	171	339	340	323	372	465	127	87	472	184	373	442	365	102	332	138	140	206	380	183	340	205	303	151	485	262	73	161	50	442	40	264	64	384	368
430	404	75	450	286	70	56	452	73	198	257	274	242	269	115	395	264	488	449	223	437	399	425	347	72	432	323	121	367	409	223	32	58	101	331	338	249	238	59
431	275	472	282	337	156	232	412	469	193	142	79	463	340	226	453	325	376	289	287	185	29	264	332	302	384	333	474	96	122	155	224	13	177	74	207	56	177	132
432	356	185	101	204	368	337	45	193	309	214	477	427	412	168	194	241	200	69	274	334	137	305	500	488	485	233	142	260	460	339	267	176	116	105	257	168	393	408
433	210	330	303	171	93	362	400	126	130	143	381	123	209	118	399	152	296	373	224	440	204	301	489	18	245	28	476	494	302	430	246	206	39	443	190	359	48	173
434	91	111	465	468	219	19	215	408	263	375	163	420	40	328	74	276	406	315	210	317	3	222	245	158	61	8	381	62	25	405	278	221	258	314	409	316	466	413
435	362	486	324	264	314	106	187	170	178	37	194	218	66	126	273	35	67	240	316	42	96	220	194	78	183	138	406	285	322	314	175	119	491	329	169	237	281	310
436	151	378	109	372	166	105	167	441	239	425	314	83	339	37	256	185	475	460	438	138	163	230	460	452	94	398	474	77	457	285	66	331	38	8	342	478	51	365
437	481	26	279	100	345	454	319	62	221	81	311	400	369	16	276	399	345	329	382	469	440	422	256	318	493	384	460	139	370	227	91	204	162	49	265	278	486	115
438	173	166	108	20	73	18	49	445	385	66	323	139	250	308	282	354	99	46	480	95	168	453	23	217	435	120	499	191	366	273	463	43	385	117	358	145	324	92
439	348	409	82	471	58	80	498	112	498	422	488	496	241	269	76	278	156	59	17	472	72	420	172	355	78	155	23	111	434	423	248	10	63	80	91	221	461	269
440	426	64	8	325	25	467	172	80	254	43	358	434	115	15	329	366	251	455	56	257	127	351	408	170	454	161	413	325	251	189	335	478	436	113	165	2	387	375
441	34	20	168	57	231	348	168	167	372	359	67	305	4	118	482	163	269	190	57	26	310	381	55	101	431	111	167	412	30	278	245	62	226	203	404	258	175	381
442	298	124	117	201	44	159	449	186	434	223	470	253	410	297	181	432	153	139	437	402	396	280	400	346	133	473	239	333	183	253	4	484	458	456	81	415	42	385
443	443	239	136	59	349	437	206	213	490	21	7	231	405	81	64	152	215	382	347	16	211	471	382	162	45	482	281	261	173	176	480	52	432	149	316	90	373	428
444	299	399	303	336	107	321	450	432	41	434	12	59	4	15	423	381	456	35	368	135	487	220	8	131	285	476	303	410	82	232	193	310	349	499	76	303	140	341
445	458	6	320	197	498	98	286	257	11	476	49	252	193	110	116	29	224	333	49	363	404	104	307	68	317	31	84	281	305	234	484	141	161	193	496	384	386	87
446	150	459	400	157	155	456	251	270	217	238	47	411	183	243	92	332	360	180	375	159	371	11	45	24	389	26	128	364	443	485	486	245	87	334	389	181	358	19
447	407	356	417	428	165	224	250	300	175	243	281	371	135	225	316	453	162	460	52	349	499	218	152	359	81	167	455	45	72	233	387	361	308	102	2	270	184	377
448	390	292	50	413	168	88	453	257	239	443	246	36	460	250	113	187	295	159	245	265	225	406	61	462	474	233	287	61	424	209	165	441	420	130	44	334	173	88
449	145	238	319	233	215	470	379	340	153	136	114	168	477	380	247	413	298	371	165	95	98	450	142	40	188	54	288	119	57	298	1	118	376	40	322	301	131	4
450	88	361	20	130	388	111	209	446	423	257	168	285	111	457	48	310	198	421	113	486	286	375	64	25	14	103	487	56	375	187	380	323	190	17	394	217	34	4
451	284	491	258	143	498	434	163	306	55	366	112	65	202	393	8	323	137	128	477	28	27	217	243	28	140	293	332	217	73	115	471	271	416	9	403	170	333	482
452	215	359	314	155	109	406	444	424	79	113	138	426	57	52	33	260	97	65	68	354	348	196	416	19	76	224	96	26	363	97	85	379	274	99	147	236	272	106
453	114	311	69	390	261	349	315	34	200	157	188	215	208	37	208	11	350	344	361	114	225	376	410	344	454	92	282	273	408	478	9	425	466	282	481	345	419	27
454	481	495	6	452	369	461	130	140	263	167	238	11	389	13	210	417	151	297	274	497	413	328	272	245	497	167	308	213	433	201	73	272	121	225	304	10	242	228
455	490	39	367	192	323	43	397	388	418	193	310	460	422	207	40	494	182	322	439	32	402	369	14	300	220	269	408	97	472	477	52	331	46	206	172	61	254	377
456	455	430	274	154	11	412	258	247	212	51	222	84	158	47	272	93	322	413	279	476	331	265	264	452	146	446	422	38	468	348	457	365	457	197	270	201	139	364
457	475	30	370	361	499	286	303	152	147	149	262	431	47	479	408	396	258	129	422	68	53	64	94	393	29	477	484	492	6	159	271	30	253	225	17	347	316	170
458	478	402	19	373	74	353	147	347	89	49	62	115	24	176	328	345	20	266	149	392	120	46	268	138	69	443	328	262	125	273	284	30	304	143	220	119	341	334
459	5	56	438	303	199	358	410	243	119	215	174	499	348	260	364	362	248	213	100	15	188	320	285	444	129	158	312	370	493	19	108	242	306	489	478	74	141	328
460	470	218	29	217	146	2	490	142	193	167	349	466	116	87	330	114	356	385	46	108	86	482	418	145	325	427	396	247	315	191	137	461	273	79	228	105	426	484
461	248	196	170	43	394	40	317	462	221	443	219	132	163	270	440	321	3	193	272	106	346	36	358	158	94	136	170	316	451	332	68	306	273	271	12	207	135	410
462	29	276	450	153	44	493	308	26	87	447	200	26	280	328	403	129	343	122	421	305	85	277	388	405	282	246	389	306	297	207	183	104	341	296	162	364	41	500
463	374	204	80	168	359	204	343	400	315	85	221	109	151	415	50	394	331	123	377	334	267	12	34	43	167	145	55	496	273	311	495	328	308	331	386	305	38	428
464	346	79	448	384	295	499	409	288	472	417	272	48	76	493	249	95	140	128	11	95	286	280	129	326	97	459	487	12	189	340	460	276	71	351	198	339	352	226
465	186	462	90	272	120	203	355	177	138	397	23	431	130	335	373	304	477	181	13	42	68	400	292	315	203	177	9	215	313	438	135	49	59	172	465	113	201	133
466	478	170	308	191	269	378	8	232	142	161	50	191	162	311	181	354	496	52	490	500	60	471	74	162	10	241	341	303	458	429	73	134	441	429	456	375	371	403
467	115	446	415	124	237	290	259	383	56	172	35	127	153	116	429	167	488	22	255	120	18	273	12	179	45	17	300	435	169	310	357	439	28	454	128	14	424	179
468	484	164	49	225	358	383	138	403	47	208	488	173	447	372	127	128	305	158	231	326	145	198	487	306	397	136	369	38	302	211	290	342	400	137	373	231	424	333
469	423	423	245	241	277	154	177	122	243	93	454	147	223	124	17	328	249	24	398	431	261	446	470	425	174	264	359	498	417	59	242	47	105	301	197	264	205	492
470	312	252	119	29	101	438	270	335	57	87	335	74	157	54	280	464	390	44	15	114	201	326	15	212	238	34	76	144	366	35	198	421	483	375	151	163	144	95
471	385	390	301	16	392	142	255	392	162	242	184	397	7	274	216	91	415	138	120	408	66	402	461	343	63	45	163	21	73	383	436	194	202	34	94	295	497	127
472	144	427	338	471	99	303	54	165	345	344	132	70	398	316	42	135	408	224	236	482	474	287	24	382	206	332	105	292	419	169	267	150	410	241	243	62	250	95
473	258	55	218	159	415	429	167	3	387	496	252	314	416	117	454	327	30	267	463	459	18	353	147	65	190	421	84	313	298	356	8	406	66	281	410	460	98	500
474	119	104	408	147	85	207	246	14	310	343	208	46	73	39	35	157	108	488	348	316	338	428	173	322	475	137	481	50	170	68	154	55	384	120	85	157	119	383
475	484	305	96	180	340	29	378	33	195	398	257	228	432	366	434	233	417	414	285	347	2	133	458	179	173	302	408	50	105	399	78	419	297	312	351	27	189	53
476	320	296	499	364	27	362	153	412	398	21	474	110	249	352	104	166	348	468	444	49	122	154	432	374	450	243	224	24	169	402	381	307	114	91	222	337	42	232
477	394	275	114	428	141	459	69	70	266	278	194	133	208	277	192	193	122	3	31	401	375	452	311	21	87	270	70	391	94	403	39	473	137	454	429	48	91	132
478	355	109	240	393	80	198	376	481	258	436	440	133	187	457	141	238	436	459	358	239	34	130	96	430	119	367	493	370	32	304	35	202	19	279	355	6	71	227
479	118	121	190	132	300	211	178	353	451	253	434	183	158	57	411	211	296	429	57	185	411	368	70	104	233	147	453	107	143	196	257	83	169	121	86	111	230	333
480	52	484	444	182	6	57	11	198	310	402	334	259	272	356	172	22	249	80	5	130	172	166	320	270	156	210	205	312	289	46	19	9	312	145	284	202	469	149
481	231	247	499	349	396	145	246	452	239	453	88	135	437	277	224	436	45	164	272	86	239	434	257	45	95	416	395	86	369	192	251	73	382	46	420	53	200	253
482	419	459	67	420	331	476	486	45	186	498	277	42	319	307	45	109	288	134	432	326	21	363	227	462	461	130	178	327	206	89	37	357	339	316	66	486	235	420
483	151	346	39	161	36	73	383	124	483	214	219	8	281	357	394	69	17	306	45	202	145	1	58	1	134	130	198	65	315	65	313	330	211	124	433	155	121	453
484	399	475	463	39	480	444	495	51	86	400	129	386	330	56	380	33	153	302	263	483	260	440	204	364	487	412	311	477	26	72	222	60	304	97	310	144	356	151
485	238	325	212	211	344	440	247	465	381	449	413	275	346	173	68	126	83	65	311	365	352	473	199	308	109	166	475	188	395	89	381	259	434	37	396	249	422	406
486	483	493	489	4	298	443	229	166	131	283	44	476	432	181	297	266	116	331	121	25	180	269	273	133	131	164	490	221	13	347	253	306	174	164	242	84	43	289
487	473	478	158	215	324	414	358	96	381	491	54	301	122	82	13	394	49	5	188	386	48	220	373	88	343	313	318	403	342	182	202	216	222	287	104	246	492	53
488	492	294	353	17	275	496	159	115	250	167	102	366	457	219	180	288	442	111	303	447	233	215	66	51	433	174	51	336	108	221	371	444	307	483	121	92	181	428
489	484	27	5	44	384	466	112	394	425	289	313	336	409	40	457	64	329	423	271	148	8	268	212	184	487	365	383	158	365	187	480	133	492	275	204	37	423	499
490	498	378	221	146	158	187	218	281	113	463	261	340	32	264	177	201	460	379	329	16	438	161	78	106	336	185	106	184	274	214	265	137	23	120	249	479	369	192
491	411	23	157	261	145	256	183	74	97	119	426	13	388	376	497	70	226	204	22	344	438	177	86	40	149	140	458	145	266	335	268	103	467	229	284	485	491	330
492	152	496	92	277	190	264	427	340	246	227	202	461	313	206	193	76	163	116	357	329	281	285	291	427	286	484	224	68	40	402	217	257	394	392	81	265	157	495
493	352	160	362	373	172	232	216	76	165	171	17	336	219	59	232	25	442	484	321	474	462	170	436	414	309	365	216	272	232	94	490	38	344	309	246	388	462	79
494	161	360	76	38	365	425	178	327	266	187	343	140	490	26	51	36	303	179	489	344	424	57	426	369	472	335	431	45	458	214	212	439	266	440	79	336	143	64
495	444	75	432	224	445	476	125	253	304	178	218	351	449	370	205	64	404	209	423	470	482	192	156	126	159	304	449	383	243	32	427	204	128	179	338	436	67	194
496	201	189	137	303	474	359	79	74	93	166	380	159	319	114	462	74	271	289	37	455	247	359	322	154	229	223	280	97	55	289	320	48	262	440	250	277	59	89
497	391	479	217	324	208	56	434	487	309	401	486	121	366	274	384	378	128	351	433	274	226	495	499	274	351	321	454	177	188	52	220	388	132	231	401	149	488	239
498	420	171	139	38	467	278	14	82	492	357	379	157	83	414	349	307	363	102	237	394	439	306	289	76	143	330	398	46	273	322	214	226	295	75	204	314	255	380
499	115	204	342	280	67	313	409	84	313	455	253	410	323	90	200	205	184	180	167	348	281	456	347	329	413	209	362	108	27	498	476	491	424	102	352	82	171	495
500	279	136	40	128	454	18	325	67	236	302	384	311	243	409	26	60	93	77	448	310	280	273	453	33	216	458	141	324	370	5	207	67	457	253	494	265	395	1
